animation{
  name = "stopped",
  src_image = "npc/NewlinkNPC/hemus.png",
  frame_delay = 600,
  frame_to_loop_on = 0,
  directions = {
    { x = 0, y = 0, frame_width = 32, frame_height = 48, origin_x = 16, origin_y = 29, num_frames = 2 },
    { x = 0, y = 0, frame_width = 32, frame_height = 48, origin_x = 16, origin_y = 29, num_frames = 2 },
    { x = 0, y = 0, frame_width = 32, frame_height = 48, origin_x = 16, origin_y = 29, num_frames = 2 },
    { x = 0, y = 0, frame_width = 32, frame_height = 48, origin_x = 16, origin_y = 29, num_frames = 2 },
  },
}
